…
```r
#Finding the exact location of missing values:

fatality[!complete.cases(fatality),]
```

```
## # A tibble: 38 x 13
##    `Crash ID` State Month  Year `Crash Type` `Speed Limit` `Road User`
##    <chr>      <chr> <ord> <dbl> <fct>                <dbl> <fct>      
##  1 20202052   Vic   Aug    2020 Single                  NA Driver     
##  2 20202005   Vic   Aug    2020 Single                  NA Driver     
##  3 20202013   Vic   Aug    2020 Single                  NA Pedestrian 
##  4 20202037   Vic   Jul    2020 Single                  NA Driver     
##  5 20205037   WA    Jul    2020 Pedestrian              NA Pedestrian 
##  6 20202069   Vic   Apr    2020 Multiple               100 Pedestrian 
##  7 20195054   WA    Apr    2019 Multiple                NA Driver     
##  8 20185027   WA    Aug    2018 Single                  NA Passenger  
##  9 20182086   Vic   Jun    2018 Multiple                NA Passenger  
## 10 20185017   WA    Apr    2018 Single                  NA Passenger  
## # ... with 28 more rows, and 6 more variables: Day of week <chr>,
## #   Time of day <chr>, Age <dbl>, Number Fatalities <fct>,
## #   Festival Period <chr>, Legal.driver <chr>
```
…
